Data manipulation
…
Filtering data

In our report we also make plot by species. To do this we need to keep only the data of the species we want to analyse. We use the filter() function to filter data frames, this function returns a new data frame with only the rows that satisfy some conditions.

We can use logical operators (>, <, >=, <=, ==) to create conditions from numeric variables These operators are also useful for dates and text strings. Look at the code to see a condition for text type of data.

penguins %>% 
  filter(species == "Gentoo")

## # A tibble: 124 x 8
##    species island bill_length_mm bill_depth_mm flipper_length_~ body_mass_g
##    <chr>   <chr>           <dbl>         <dbl>            <dbl>       <dbl>
##  1 Gentoo  Biscoe           46.1          13.2              211        4500
##  2 Gentoo  Biscoe           50            16.3              230        5700
##  3 Gentoo  Biscoe           48.7          14.1              210        4450
##  4 Gentoo  Biscoe           50            15.2              218        5700
##  5 Gentoo  Biscoe           47.6          14.5              215        5400
##  6 Gentoo  Biscoe           46.5          13.5              210        4550
##  7 Gentoo  Biscoe           45.4          14.6              211        4800
##  8 Gentoo  Biscoe           46.7          15.3              219        5200
##  9 Gentoo  Biscoe           43.3          13.4              209        4400
## 10 Gentoo  Biscoe           46.8          15.4              215        5150
## # ... with 114 more rows, and 2 more variables: sex <chr>, year <dbl>
…
